{
    "module": {
        "title": "Slideout",
        "description": "This is a module description",
        "pages": "Slideout"
    },
    "moduleSpecific": {
    "dataXML": "PHBhZ2UgaWQ9Im5hdiIgdHlwZT0iaHRtbCIgdGl0bGU9IiI+DQogICAgICAgICAgIDx3ZWJ2aWV3IHNvdXJjZT0ibW9kdWxlcy9zbGlkZW91dC9zbGlkZW91dC5odG1sIj4NCiAgICAgICAgICAgPC93ZWJ2aWV3Pg0KICAgICAgIDwvcGFnZT4=",
    "pages" : [
        { "id": "navdrawer", "type": "navdrawer", "mainpage": "NO", "drawerpage":"slideout_main" },
        { "id": "main", "type": "html", "path": "slideout.html" }
    ]

},

    "lists": [],
    "files": [{
        "name":"images/mtel-logo.png", "recolor":true
        },{
        "name": "js/config.js",
        "parameters": [{
            "label": "Add button for cart page ( true / false )",
            "name": "addButtnCart",
            "value": "",
            "defaultValue": "true",
            "type": "checkbox",
            "editable": true
        },{
            "label": "Add button for logout ( true / false )",
            "name": "addLogOutButtn",
            "value": "",
            "defaultValue": "false",
            "type": "checkbox",
            "editable": true
        },{
            "label": "Add button for Mtel smart apps ( true / false )",
            "name": "footerMtelBtn",
            "value": "",
            "defaultValue": "false",
            "type": "checkbox",
            "editable": true
        },{
            "label": "URL for Mtel smart apps ( true / false )",
            "name": "footerBtnLink",
            "value": "",
            "defaultValue": "http://www.mtel.bg/smart-app",
            "type": "checkbox",
            "editable": true
        }, {
            "label": "Slideout language keys - the order in the slideout is from top to bottom starting with the first key that you've used",
            "name": "dataLangKeys",
            "value": "",
            "defaultValue": "about_us",
            "type": "text",
            "editable": true
        }, {
            "label": "Slideout page ids -  the order needs to be the same as the corresponding language keys",
            "name": "navigationID",
            "value": "",
            "defaultValue": "aboutUs",
            "type": "text",
            "editable": true
        }]
    }, {
        "name": "css/appSpecific.css",
        "parameters": [{
            "label": "Slideout background",
            "name": "slideout-background",
            "value": "",
            "defaultValue": "rgba(255,255,255,1)",
            "type": "hex",
            "editable": true,
            "selector": {
                "#slideout .inner, .slide_menu": ["background-color"]
            }
        }, {
            "label": "Language text color",
            "name": "Language-color",
            "value": "",
            "defaultValue": "#ccc",
            "type": "hex",
            "editable": true,
            "selector": {
                "a.lang-option": ["color"]
            }
        }, {
            "label": "Active language background",
            "name": "Active language background",
            "value": "",
            "defaultValue": "#0096d9",
            "type": "hex",
            "editable": true,
            "selector": {
                "a.lang-option.active": ["background"]
            }
        }, {
            "label": "Active language color",
            "name": "Active language color",
            "value": "",
            "defaultValue": "#fff",
            "type": "hex",
            "editable": true,
            "selector": {
                "a.lang-option.active": ["color"]
            }
        }, {
            "label": "Text transform ( uppercase, lowercase, capitalize) ",
            "name": "Text transform",
            "value": "",
            "defaultValue": "uppercase",
            "type": "text",
            "editable": true,
            "selector": {
                "#slideout li": ["text-transform"]
            }
        }, {
            "label": "Left border active page",
            "name": "Left border active page",
            "value": "",
            "defaultValue": "#0096d9",
            "type": "hex",
            "editable": true,
            "selector": {
                "#slideout li.active": ["border-color"]
            }
        }, {
            "label": "Menu text color",
            "name": "Menu text color",
            "value": "",
            "defaultValue": "#ccc",
            "type": "hex",
            "editable": true,
            "selector": {
                "#slideout li a": ["color"]
            }
        }, {
            "label": "Active page color",
            "name": "Active page color",
            "value": "",
            "defaultValue": "#0096d9",
            "type": "hex",
            "editable": true,
            "selector": {
                "#slideout li.active a": ["color"]
            }
        }, {
            "label": "Button for cart text color",
            "name": "Button for cart text color",
            "value": "",
            "defaultValue": "#60636a",
            "type": "hex",
            "editable": true,
            "selector": {
                ".slideout_call": ["color"]
            }
        }, {
            "label": "Button for cart border top color",
            "name": "Button for cart border top color",
            "value": "",
            "defaultValue": "#60636a",
            "type": "hex",
            "editable": true,
            "selector": {
                ".slideout_call": ["border-color"]
            }
        }, {
            "label": "Button for cart background color",
            "name": "Button for cart background color",
            "value": "",
            "defaultValue": "rgba(0,0,0,0)",
            "type": "hex",
            "editable": true,
            "selector": {
                ".slideout_call": ["background"]
            }
        }]
    }]
}
