{
    "module": {
        "title": "Header page",
        "description": "This module adds a header page",
        "pages": "headerPage",
        "dependencies": []
    },
    "assistant": {},
    "files": [{
        "name": "css/style.css",
        "title": "Design",
        "description": "Edit app specific colors, font styles etc.",
        "parameters": [{
            "label": "Header text color",
            "name": "header-text-color",
            "value": "",
            "defaultValue": "#fff",
            "type": "hex",
            "editable": true,
            "selector": {
                ".header_page": ["color"]
            }
        }, {
            "label": "Header background color",
            "name": "header-background",
            "value": "",
            "defaultValue": "#0096d9",
            "type": "hex",
            "editable": true,
            "selector": {
                ".header_page": ["background"]
            }
        }, {
            "label": "Header text font type",
            "name": "header-text-font",
            "value": "'OpenSansRegular' sans-serif",
            "defaultValue": "'OpenSansRegular' sans-serif",
            "type": "text",
            "editable": true,
            "selector": {
                ".header_page": ["font-family"]
            }
        }, {
            "label": "Text transform (example : uppercase, lowercase, capitalize)",
            "name": "text-transform",
            "value": "",
            "defaultValue": "uppercase",
            "type": "text",
            "editable": true,
            "selector": {
                ".header_page": ["text-transform"]
            }
        }, {
            "label": "Width",
            "name": "width",
            "value": "96%",
            "defaultValue": "96%",
            "type": "text",
            "editable": false,
            "selector": {
                ".header_page": ["width"]
            }
        }, {
            "label": "Padding",
            "name": "padding",
            "value": "2%",
            "defaultValue": "2%",
            "type": "text",
            "editable": false,
            "selector": {
                ".header_page": ["padding"]
            }
        }, {
            "label": "text align",
            "name": "text-align",
            "value": "center",
            "defaultValue": "center",
            "type": "text",
            "editable": false,
            "selector": {
                ".header_page": ["text-align"]
            }
        }, {
            "label": "background-size",
            "name": "background-size",
            "value": "100%",
            "defaultValue": "100%",
            "type": "text",
            "editable": false,
            "selector": {
                ".header_page": ["background-size"]
            }
        }, {
            "label": "position",
            "name": "position",
            "value": "relative",
            "defaultValue": "relative",
            "type": "text",
            "editable": false,
            "selector": {
                ".header_page": ["position"]
            }
        }, {
            "label": "z-index",
            "name": "z-index",
            "value": "10",
            "defaultValue": "10",
            "type": "text",
            "editable": false,
            "selector": {
                ".header_page": ["z-index"]
            }
        }, {
            "label": "No information for page - text color",
            "name": "No information for page - text color",
            "value": "",
            "defaultValue": "#0096d9",
            "type": "hex",
            "editable": true,
            "selector": {
                ".no-information": ["color"]
            }
        },{
            "label": "header position fixed",
            "name": "header-position-fixed",
            "value": "",
            "defaultValue": "fixed",
            "type": "test",
            "editable": true,
            "selector": {
                ".header_page:first-of-type": ["position"]
            }
        },{
            "label": "header top space",
            "name": "header-top-space",
            "value": "",
            "defaultValue": "0",
            "type": "test",
            "editable": true,
            "selector": {
                ".header_page:first-of-type": ["top"]
            }
        },{
            "label": "Content padding",
            "name": "content-padding",
            "value": "",
            "defaultValue": "29px !important",
            "type": "test",
            "editable": true,
            "selector": {
                ".content": ["padding-top"]
            }
        }]
    }],
    "lists": []
}
