{
  "module": {
    "title": "AppCore",
    "description": "Core module for all applications",
    "pages": "AppCore",
    "dependencies": []
  },
  "files": [],
  "lists": [{
    "listId": "",
    "type": "standard",
    "parent": "",
    "slug": "welcome",
    "title": "Welcome",
    "structure": 
    {
        "title": {
            "type": "text",
            "title": "Title"
        },
        "descriptions": {
            "type": "textarea",
            "title": "Descriptions"
        },
        "icon": {
            "type": "text",
            "title": "Icon"
        },
        "logo": {
            "type": "image",
            "title": "Logo"
        },
        "visible": {
            "type": "radio",
            "title": "visible",
            "options": {
                "1": "show",
                "0": "hide"
            }
        }
    }
  },
  {
    "listId": "",
    "type": "standard",
    "parent": "",
    "slug": "languages",
    "title": "Languages",
    "localizedProperties": [ "LANG" ],
    "structure": 
    {
        "inx": {
            "type": "text",
            "title": "Key"
        },
        "LANG": {
            "type": "text",
            "title": "Title"
        }
    }
  }]
}


