[{
    "listId": "",
    "type": "standard",
    "parent": "",
    "slug": "welcome",
    "title": "Welcome",
    "structure": 
    [{
        "title_en": "Welcome to our mobile application",
        "descriptions": "Here you can find our newest promotions and offers!",
        "icon": "https://image.flaticon.com/icons/svg/40/40021.svg",
        "logo": "files/12.png",
        "visible": "1"
    }]
 }]


 
   